Y.D.S.	standard	5.0	0	7
Y.D.S.	standard	5.1	8	15
Y.D.S.	standard	5.2	16	23
Y.D.S.	standard	5.3	24	31
Y.D.S.	standard	5.4	32	39
Y.D.S.	standard	5.5	40	47
Y.D.S.	standard	5.6	48	57
Y.D.S.	standard	5.7	58	67
Y.D.S.	standard	5.8	68	77
Y.D.S.	standard	5.9	78	87
Y.D.S.	standard	5.10	88	107
Y.D.S.	standard	5.11	108	127
Y.D.S.	standard	5.12	128	147
Y.D.S.	standard	5.13	148	167
Y.D.S.	standard	5.14	168	187
Y.D.S.	standard	5.15	188	207
French	standard	2	0	23
French	standard	3	24	33
French	standard	4a	34	42
French	standard	4b	43	51
French	standard	4c	52	60
French	standard	5a	61	69
French	standard	5b	70	78
French	standard	5c	79	87
French	standard	6a	88	92
French	standard	6a+	93	97
French	standard	6b	98	102
French	standard	6b+	103	107
French	standard	6c	108	114
French	standard	6c+	115	121
French	standard	7a	122	127
French	standard	7a+	128	132
French	standard	7b	133	137
French	standard	7b+	138	142
French	standard	7c	143	147
French	standard	7c+	148	152
French	standard	8a	153	157
French	standard	8a+	158	162
French	standard	8b	163	167
French	standard	8b+	168	172
French	standard	8c	173	177
French	standard	8c+	178	182
French	standard	9a	183	187
French	standard	9a+	188	192
French	standard	9b	193	197
French	standard	9b+	198	202
French	standard	9c	203	207
Ewbank NZ	standard	3	0	5
Ewbank NZ	standard	4	6	11
Ewbank NZ	standard	5	12	17
Ewbank NZ	standard	6	18	22
Ewbank NZ	standard	7	23	27
Ewbank NZ	standard	8	28	32
Ewbank NZ	standard	9	33	37
Ewbank NZ	standard	10	38	42
Ewbank NZ	standard	11	43	47
Ewbank NZ	standard	12	48	52
Ewbank NZ	standard	13	53	57
Ewbank NZ	standard	14	58	62
Ewbank NZ	standard	15	63	67
Ewbank NZ	standard	16	68	75
Ewbank NZ	standard	17	76	83
Ewbank NZ	standard	18	84	91
Ewbank NZ	standard	19	92	99
Ewbank NZ	standard	20	100	106
Ewbank NZ	standard	21	107	113
Ewbank NZ	standard	22	114	120
Ewbank NZ	standard	23	121	127
Ewbank NZ	standard	24	128	132
Ewbank NZ	standard	25	133	137
Ewbank NZ	standard	26	138	142
Ewbank NZ	standard	27	143	147
Ewbank NZ	standard	28	148	152
Ewbank NZ	standard	29	153	157
Ewbank NZ	standard	30	158	162
Ewbank NZ	standard	31	163	167
Ewbank NZ	standard	32	168	172
Ewbank NZ	standard	33	173	177
Ewbank NZ	standard	34	178	182
Ewbank NZ	standard	35	183	187
Ewbank NZ	standard	36	188	192
Ewbank NZ	standard	37	193	197
Ewbank NZ	standard	38	198	202
Ewbank NZ	standard	39	203	207
Ewbank SA	standard	3	0	5
Ewbank SA	standard	4	6	11
Ewbank SA	standard	5	12	17
Ewbank SA	standard	6	18	22
Ewbank SA	standard	7	23	27
Ewbank SA	standard	8	28	32
Ewbank SA	standard	9	33	37
Ewbank SA	standard	10	38	42
Ewbank SA	standard	11	43	47
Ewbank SA	standard	12	48	52
Ewbank SA	standard	13	53	57
Ewbank SA	standard	14	58	62
Ewbank SA	standard	15	63	67
Ewbank SA	standard	16	68	75
Ewbank SA	standard	17	76	81
Ewbank SA	standard	18	82	87
Ewbank SA	standard	19	88	93
Ewbank SA	standard	20	94	99
Ewbank SA	standard	21	100	105
Ewbank SA	standard	22	106	111
Ewbank SA	standard	23	112	117
Ewbank SA	standard	24	118	122
Ewbank SA	standard	25	123	127
Ewbank SA	standard	26	128	132
Ewbank SA	standard	27	133	137
Ewbank SA	standard	28	138	142
Ewbank SA	standard	29	143	147
Ewbank SA	standard	30	148	152
Ewbank SA	standard	31	153	157
Ewbank SA	standard	32	158	162
Ewbank SA	standard	33	163	167
Ewbank SA	standard	34	168	172
Ewbank SA	standard	35	173	177
Ewbank SA	standard	36	178	182
Ewbank SA	standard	37	183	187
Ewbank SA	standard	38	188	192
Ewbank SA	standard	39	193	197
Ewbank SA	standard	40	198	202
Ewbank SA	standard	41	203	207
