Clean	standard	C1	0	41
Clean	standard	C2	42	83
Clean	standard	C3	84	125
Clean	standard	C4	126	167
Clean	standard	C5	168	209
A	standard	A1	0	41
A	standard	A2	42	83
A	standard	A3	84	125
A	standard	A4	126	167
A	standard	A5	168	209